out/dump.vcd
$date
	Tue Oct  7 13:39:19 2025
$end
$version
	Icarus Verilog
$end
$timescale
	1ps
$end
$scope module test $end
$var wire 8 ! regA_out [7:0] $end
$var wire 8 " regB_out [7:0] $end
$var reg 1 # add_test_failed $end
$var reg 1 $ and_test_failed $end
$var reg 1 % clk $end
$var reg 1 & inc_test_failed $end
$var reg 1 ' mov_test_failed $end
$var reg 1 ( not_test_failed $end
$var reg 1 ) or_test_failed $end
$var reg 1 * reg_mov_test_failed $end
$var reg 1 + shl_test_failed $end
$var reg 1 , shr_test_failed $end
$var reg 1 - sub_test_failed $end
$var reg 1 . xor_test_failed $end
$scope module Comp $end
$var wire 1 % clk $end
$var wire 8 / srcB [7:0] $end
$var wire 8 0 srcA [7:0] $end
$var wire 8 1 regB_out_bus [7:0] $end
$var wire 8 2 regA_out_bus [7:0] $end
$var wire 8 3 pc_out_bus [7:0] $end
$var wire 7 4 opcode [6:0] $end
$var wire 8 5 mem_out_bus [7:0] $end
$var wire 8 6 mem_din [7:0] $end
$var wire 8 7 mem_addr [7:0] $end
$var wire 8 8 literal [7:0] $end
$var wire 15 9 im_out_bus [14:0] $end
$var wire 8 : alu_out_bus [7:0] $end
$var wire 1 ; Z $end
$var wire 2 < WSEL [1:0] $end
$var wire 1 = V $end
$var wire 2 > SB [1:0] $end
$var wire 2 ? SA [1:0] $end
$var wire 4 @ S [3:0] $end
$var wire 1 A N $end
$var wire 1 B MW $end
$var wire 1 C MA $end
$var wire 1 D LB $end
$var wire 1 E LA $end
$var wire 1 F C $end
$var reg 15 G IR [14:0] $end
$scope module ALU $end
$var wire 8 H a [7:0] $end
$var wire 8 I b [7:0] $end
$var wire 1 ; z $end
$var wire 4 J s [3:0] $end
$var wire 1 A n $end
$var reg 1 F c $end
$var reg 9 K diff_ext [8:0] $end
$var reg 8 L out [7:0] $end
$var reg 9 M sum_ext [8:0] $end
$var reg 1 = v $end
$upscope $end
$scope module CTRL $end
$var wire 7 N opcode [6:0] $end
$var parameter 4 O ADD $end
$var parameter 4 P AND_ $end
$var parameter 4 Q INC $end
$var parameter 4 R NOT_ $end
$var parameter 4 S OR_ $end
$var parameter 2 T SA_A $end
$var parameter 2 U SA_B $end
$var parameter 2 V SA_U $end
$var parameter 2 W SA_Z $end
$var parameter 2 X SB_A $end
$var parameter 2 Y SB_B $end
$var parameter 2 Z SB_L $end
$var parameter 2 [ SB_M $end
$var parameter 4 \ SHL $end
$var parameter 4 ] SHR $end
$var parameter 4 ^ SUB $end
$var parameter 2 _ W_A $end
$var parameter 2 ` W_ALU $end
$var parameter 2 a W_B $end
$var parameter 2 b W_Z $end
$var parameter 4 c XOR_ $end
$var reg 1 E LA $end
$var reg 1 D LB $end
$var reg 1 C MA $end
$var reg 1 B MW $end
$var reg 4 d S [3:0] $end
$var reg 2 e SA [1:0] $end
$var reg 2 f SB [1:0] $end
$var reg 2 g WSEL [1:0] $end
$upscope $end
$scope module DM $end
$var wire 8 h addr [7:0] $end
$var wire 1 % clk $end
$var wire 8 i din [7:0] $end
$var wire 8 j dout [7:0] $end
$var wire 1 B we $end
$var parameter 32 k AW $end
$upscope $end
$scope module IM $end
$var wire 15 l out [14:0] $end
$var wire 8 m address [7:0] $end
$var parameter 32 n AW $end
$var parameter 32 o DW $end
$upscope $end
$scope module PC $end
$var wire 1 % clk $end
$var parameter 32 p N $end
$var reg 8 q pc [7:0] $end
$upscope $end
$scope module regA $end
$var wire 1 % clk $end
$var wire 8 r data [7:0] $end
$var wire 1 E load $end
$var parameter 32 s N $end
$var reg 8 t out [7:0] $end
$upscope $end
$scope module regB $end
$var wire 1 % clk $end
$var wire 8 u data [7:0] $end
$var wire 1 D load $end
$var parameter 32 v N $end
$var reg 8 w out [7:0] $end
$upscope $end
$upscope $end
$scope task prefetch_first $end
$upscope $end
$scope task step $end
$upscope $end
$upscope $end
$enddefinitions $end
$comment Show the parameter values. $end
$dumpall
b1000 v
b1000 s
b1000 p
b1111 o
b1000 n
b1000 k
b101 c
b11 b
b10 a
b0 `
b1 _
b1 ^
b111 ]
b110 \
b11 [
b1 Z
b0 Y
b10 X
b0 W
b11 V
b10 U
b1 T
b11 S
b100 R
b1000 Q
b10 P
b0 O
$end
#0
$dumpvars
b0 w
b0 u
b0 t
b0 r
b0 q
b0 m
b1000101010 l
bx j
b0 i
bx h
bx g
bx f
bx e
bx d
bx N
b0 M
b0 L
b0 K
bx J
bx I
b0x H
bx G
0F
xE
xD
xC
xB
0A
bx @
bx ?
bx >
0=
bx <
1;
b0 :
b1000101010 9
bx 8
bx 7
b0 6
bx 5
bx 4
b0 3
b0 2
b0 1
b0x 0
bx /
0.
0-
0,
0+
0*
0)
0(
0'
0&
0%
0$
0#
b0 "
b0 !
$end
#1000
0A
b101010 /
b101010 I
b101010 6
b101010 i
0=
0F
0;
b101010 :
b101010 L
b101010 r
b101010 u
b101010 M
b0 0
b0 H
b0 <
b0 g
0C
0B
b0 @
b0 J
b0 d
b1 >
b1 f
b0 ?
b0 e
0D
1E
b101010 7
b101010 h
b10 4
b10 N
b101010 8
b1101111011 9
b1101111011 l
b1 3
b1 m
b1 q
b1000101010 G
1%
#2000
0%
#3000
b1111011 6
b1111011 i
b1111011 M
0;
b1111011 :
b1111011 L
b1111011 r
b1111011 u
b1111011 /
b1111011 I
1D
b1 >
b1 f
0E
b1111011 7
b1111011 h
b11 4
b11 N
b1111011 8
b1101111011 G
b101010 !
b101010 2
b101010 t
b1101010101 9
b1101010101 l
b10 3
b10 m
b10 q
1%
#4000
0%
#5000
b1010101 6
b1010101 i
b1010101 M
0;
b1010101 :
b1010101 L
b1010101 r
b1010101 u
b1010101 /
b1010101 I
b1010101 7
b1010101 h
b1010101 8
b1010101010 9
b1010101010 l
b11 3
b11 m
b11 q
b1111011 "
b1111011 1
b1111011 w
b1101010101 G
1%
#6000
0%
#7000
1A
b10101010 6
b10101010 i
b10101010 M
0;
b10101010 :
b10101010 L
b10101010 r
b10101010 u
b10101010 /
b10101010 I
1E
b1 >
b1 f
0D
b10101010 7
b10101010 h
b10 4
b10 N
b10101010 8
b1010101010 G
b1010101 "
b1010101 1
b1010101 w
b0 9
b0 l
b100 3
b100 m
b100 q
1%
#8000
0%
#9000
0A
b1010101 6
b1010101 i
b1010101 M
0;
b1010101 :
b1010101 L
b1010101 r
b1010101 u
b1010101 /
b1010101 I
b0 >
b0 f
1E
b0 7
b0 h
b0 4
b0 N
b0 8
b1001100011 9
b1001100011 l
b101 3
b101 m
b101 q
b10101010 !
b10101010 2
b10101010 t
b0 G
1%
#10000
0%
#11000
0A
b1100011 6
b1100011 i
0=
0F
b1100011 M
0;
b1100011 :
b1100011 L
b1100011 r
b1100011 u
b1100011 /
b1100011 I
b1 >
b1 f
1E
b1100011 7
b1100011 h
b10 4
b10 N
b1100011 8
b1001100011 G
b1010101 !
b1010101 2
b1010101 t
b100000000 9
b100000000 l
b110 3
b110 m
b110 q
1%
#12000
0%
#13000
0A
0=
0F
b1100011 6
b1100011 i
b1100011 M
0;
b1100011 :
b1100011 L
b1100011 r
b1100011 u
b1100011 /
b1100011 I
1D
b10 >
b10 f
0E
b0 7
b0 h
b1 4
b1 N
b0 8
b1000000010 9
b1000000010 l
b111 3
b111 m
b111 q
b1100011 !
b1100011 2
b1100011 t
b100000000 G
1%
#14000
0%
#15000
b10 6
b10 i
b10 M
0;
b10 :
b10 L
b10 r
b10 u
b10 /
b10 I
1E
b1 >
b1 f
0D
b10 7
b10 h
b10 4
b10 N
b10 8
b1000000010 G
b1100011 "
b1100011 1
b1100011 w
b1100000011 9
b1100000011 l
b1000 3
b1000 m
b1000 q
1%
#16000
0%
#17000
b11 6
b11 i
b11 M
0;
b11 :
b11 L
b11 r
b11 u
b11 /
b11 I
1D
b1 >
b1 f
0E
b11 7
b11 h
b11 4
b11 N
b11 8
b10000000000 9
b10000000000 l
b1001 3
b1001 m
b1001 q
b10 !
b10 2
b10 t
b1100000011 G
1%
#18000
0%
#19000
b101 6
b101 i
b101 M
0;
b101 :
b101 L
b101 r
b101 u
b10 0
b10 H
b1 ?
b1 e
1E
b0 >
b0 f
0D
b0 7
b0 h
b100 4
b100 N
b0 8
b10000000000 G
b11 "
b11 1
b11 w
b11000001010 9
b11000001010 l
b1010 3
b1010 m
b1010 q
1%
#20000
0%
#21000
0A
b1111 6
b1111 i
0=
0F
b1111 M
0;
b1111 :
b1111 L
b1111 r
b1111 u
b1010 /
b1010 I
b101 0
b101 H
b1 >
b1 f
b1 ?
b1 e
1E
b1010 7
b1010 h
b110 4
b110 N
b1010 8
b11100010100 9
b11100010100 l
b1011 3
b1011 m
b1011 q
b101 !
b101 2
b101 t
b11000001010 G
1%
#22000
0%
#23000
b10111 6
b10111 i
b10100 /
b10100 I
b10111 M
0;
b10111 :
b10111 L
b10111 r
b10111 u
1D
b1 >
b1 f
b10 ?
b10 e
0E
b10100 7
b10100 h
b11 0
b11 H
b111 4
b111 N
b10100 8
b11100010100 G
b1111 !
b1111 2
b1111 t
b1000010100 9
b1000010100 l
b1100 3
b1100 m
b1100 q
1%
#24000
0%
#25000
b10100 6
b10100 i
b10100 M
0;
b10100 :
b10100 L
b10100 r
b10100 u
b0 0
b0 H
1E
b1 >
b1 f
b0 ?
b0 e
0D
b10 4
b10 N
b1100000101 9
b1100000101 l
b1101 3
b1101 m
b1101 q
b10111 "
b10111 1
b10111 w
b1000010100 G
1%
#26000
0%
#27000
b101 6
b101 i
b101 M
0;
b101 :
b101 L
b101 r
b101 u
b101 /
b101 I
1D
b1 >
b1 f
0E
b101 7
b101 h
b11 4
b11 N
b101 8
b1100000101 G
b10100 !
b10100 2
b10100 t
b100000000000 9
b100000000000 l
b1110 3
b1110 m
b1110 q
1%
#28000
0%
#29000
0A
b1111 6
b1111 i
0F
b1111 K
b0 M
0;
b1111 :
b1111 L
b1111 r
b1111 u
b10100 0
b10100 H
b1 @
b1 J
b1 d
b1 ?
b1 e
1E
b0 >
b0 f
0D
b0 7
b0 h
b1000 4
b1000 N
b0 8
b100100000000 9
b100100000000 l
b1111 3
b1111 m
b1111 q
b101 "
b101 1
b101 w
b100000000000 G
1%
#30000
0%
#31000
b1010 6
b1010 i
b1010 K
0;
b1010 :
b1010 L
b1010 r
b1010 u
1D
b1 @
b1 J
b1 d
b1 ?
b1 e
0E
b1111 0
b1111 H
b1001 4
b1001 N
b100100000000 G
b1111 !
b1111 2
b1111 t
b101000000111 9
b101000000111 l
b10000 3
b10000 m
b10000 q
1%
#32000
0%
#33000
0A
0=
0F
b1000 6
b1000 i
b1000 K
0;
b1000 :
b1000 L
b1000 r
b1000 u
b1 >
b1 f
1E
b1 @
b1 J
b1 d
b1 ?
b1 e
0D
b111 7
b111 h
b111 /
b111 I
b1010 4
b1010 N
b111 8
b101100001010 9
b101100001010 l
b10001 3
b10001 m
b10001 q
b1010 "
b1010 1
b1010 w
b101000000111 G
1%
#34000
0%
#35000
0A
0F
b0 6
b0 i
b1010 /
b1010 I
b0 K
1;
b0 :
b0 L
b0 r
b0 u
1D
b1 @
b1 J
b1 d
b1 >
b1 f
b10 ?
b10 e
0E
b1010 7
b1010 h
b1010 0
b1010 H
b1011 4
b1011 N
b1010 8
b101100001010 G
b1000 !
b1000 2
b1000 t
b1011001010 9
b1011001010 l
b10010 3
b10010 m
b10010 q
1%
#36000
0%
#37000
1A
b11001010 6
b11001010 i
0;
b11001010 :
b11001010 L
b11001010 r
b11001010 u
b11001010 M
b0 0
b0 H
b11001010 /
b11001010 I
1E
b0 @
b0 J
b0 d
b1 >
b1 f
b0 ?
b0 e
0D
b11001010 7
b11001010 h
b10 4
b10 N
b11001010 8
b1110101110 9
b1110101110 l
b10011 3
b10011 m
b10011 q
b0 "
b0 1
b0 w
b1011001010 G
1%
#38000
0%
#39000
b10101110 6
b10101110 i
b10101110 M
0;
b10101110 :
b10101110 L
b10101110 r
b10101110 u
b10101110 /
b10101110 I
1D
b1 >
b1 f
0E
b10101110 7
b10101110 h
b11 4
b11 N
b10101110 8
b1110101110 G
b11001010 !
b11001010 2
b11001010 t
b110000000000 9
b110000000000 l
b10100 3
b10100 m
b10100 q
1%
#40000
0%
#41000
1A
b10001010 6
b10001010 i
b0 M
0;
b10001010 :
b10001010 L
b10001010 r
b10001010 u
b11001010 0
b11001010 H
b10 @
b10 J
b10 d
b1 ?
b1 e
1E
b0 >
b0 f
0D
b0 7
b0 h
b1100 4
b1100 N
b0 8
b110100000000 9
b110100000000 l
b10101 3
b10101 m
b10101 q
b10101110 "
b10101110 1
b10101110 w
b110000000000 G
1%
#42000
0%
#43000
1A
b10001010 6
b10001010 i
b10001010 /
b10001010 I
0;
b10001010 :
b10001010 L
b10001010 r
b10001010 u
b10 >
b10 f
1D
b10 @
b10 J
b10 d
b10 ?
b10 e
0E
b10101110 0
b10101110 H
b1101 4
b1101 N
b110100000000 G
b10001010 !
b10001010 2
b10001010 t
b1011110000 9
b1011110000 l
b10110 3
b10110 m
b10110 q
1%
#44000
0%
#45000
b11110000 6
b11110000 i
b11110000 /
b11110000 I
b11110000 M
0;
b11110000 :
b11110000 L
b11110000 r
b11110000 u
b0 0
b0 H
1E
b0 @
b0 J
b0 d
b1 >
b1 f
b0 ?
b0 e
0D
b11110000 7
b11110000 h
b10 4
b10 N
b11110000 8
b111001010101 9
b111001010101 l
b10111 3
b10111 m
b10111 q
b10001010 "
b10001010 1
b10001010 w
b1011110000 G
1%
#46000
0%
#47000
0A
b1010000 6
b1010000 i
b0 M
0;
b1010000 :
b1010000 L
b1010000 r
b1010000 u
b11110000 0
b11110000 H
b1010101 /
b1010101 I
b10 @
b10 J
b10 d
b1 ?
b1 e
b1 >
b1 f
1E
b1010101 7
b1010101 h
b1110 4
b1110 N
b1010101 8
b111001010101 G
b11110000 !
b11110000 2
b11110000 t
b1111001100 9
b1111001100 l
b11000 3
b11000 m
b11000 q
1%
#48000
0%
#49000
1A
b11001100 6
b11001100 i
b11001100 M
0;
b11001100 :
b11001100 L
b11001100 r
b11001100 u
b11001100 /
b11001100 I
b0 0
b0 H
1D
b0 @
b0 J
b0 d
b1 >
b1 f
b0 ?
b0 e
0E
b11001100 7
b11001100 h
b11 4
b11 N
b11001100 8
b111110101010 9
b111110101010 l
b11001 3
b11001 m
b11001 q
b1010000 !
b1010000 2
b1010000 t
b1111001100 G
1%
#50000
0%
#51000
1A
b10001000 6
b10001000 i
b0 M
0;
b10001000 :
b10001000 L
b10001000 r
b10001000 u
b11001100 0
b11001100 H
b10101010 /
b10101010 I
b10 @
b10 J
b10 d
b10 ?
b10 e
b1 >
b1 f
1D
b10101010 7
b10101010 h
b1111 4
b1111 N
b10101010 8
b111110101010 G
b11001100 "
b11001100 1
b11001100 w
b1011001010 9
b1011001010 l
b11010 3
b11010 m
b11010 q
1%
#52000
0%
#53000
b11001010 6
b11001010 i
b11001010 M
0;
b11001010 :
b11001010 L
b11001010 r
b11001010 u
b0 0
b0 H
b11001010 /
b11001010 I
1E
b0 @
b0 J
b0 d
b1 >
b1 f
b0 ?
b0 e
0D
b11001010 7
b11001010 h
b10 4
b10 N
b11001010 8
b1110101110 9
b1110101110 l
b11011 3
b11011 m
b11011 q
b10001000 "
b10001000 1
b10001000 w
b1011001010 G
1%
#54000
0%
#55000
b10101110 6
b10101110 i
b10101110 M
0;
b10101110 :
b10101110 L
b10101110 r
b10101110 u
b10101110 /
b10101110 I
1D
b1 >
b1 f
0E
b10101110 7
b10101110 h
b11 4
b11 N
b10101110 8
b1110101110 G
b11001010 !
b11001010 2
b11001010 t
b1000000000000 9
b1000000000000 l
b11100 3
b11100 m
b11100 q
1%
#56000
0%
#57000
b11101110 6
b11101110 i
b0 M
0;
b11101110 :
b11101110 L
b11101110 r
b11101110 u
b11001010 0
b11001010 H
b11 @
b11 J
b11 d
b1 ?
b1 e
1E
b0 >
b0 f
0D
b0 7
b0 h
b10000 4
b10000 N
b0 8
b1000100000000 9
b1000100000000 l
b11101 3
b11101 m
b11101 q
b10101110 "
b10101110 1
b10101110 w
b1000000000000 G
1%
#58000
0%
#59000
1A
b11101110 6
b11101110 i
b11101110 /
b11101110 I
0;
b11101110 :
b11101110 L
b11101110 r
b11101110 u
b10 >
b10 f
1D
b11 @
b11 J
b11 d
b10 ?
b10 e
0E
b10101110 0
b10101110 H
b10001 4
b10001 N
b1000100000000 G
b11101110 !
b11101110 2
b11101110 t
b1000110011 9
b1000110011 l
b11110 3
b11110 m
b11110 q
1%
#60000
0%
#61000
0A
b110011 6
b110011 i
b110011 /
b110011 I
b110011 M
0;
b110011 :
b110011 L
b110011 r
b110011 u
b0 0
b0 H
1E
b0 @
b0 J
b0 d
b1 >
b1 f
b0 ?
b0 e
0D
b110011 7
b110011 h
b10 4
b10 N
b110011 8
b1001011110000 9
b1001011110000 l
b11111 3
b11111 m
b11111 q
b11101110 "
b11101110 1
b11101110 w
b1000110011 G
1%
#62000
0%
#63000
1A
b11110011 6
b11110011 i
b0 M
0;
b11110011 :
b11110011 L
b11110011 r
b11110011 u
b110011 0
b110011 H
b11110000 /
b11110000 I
b11 @
b11 J
b11 d
b1 ?
b1 e
b1 >
b1 f
1E
b11110000 7
b11110000 h
b10010 4
b10010 N
b11110000 8
b1001011110000 G
b110011 !
b110011 2
b110011 t
b1110100101 9
b1110100101 l
b100000 3
b100000 m
b100000 q
1%
#64000
0%
#65000
b10100101 6
b10100101 i
b10100101 M
0;
b10100101 :
b10100101 L
b10100101 r
b10100101 u
b10100101 /
b10100101 I
b0 0
b0 H
1D
b0 @
b0 J
b0 d
b1 >
b1 f
b0 ?
b0 e
0E
b10100101 7
b10100101 h
b11 4
b11 N
b10100101 8
b1001101011010 9
b1001101011010 l
b100001 3
b100001 m
b100001 q
b11110011 !
b11110011 2
b11110011 t
b1110100101 G
1%
#66000
0%
#67000
1A
b11111111 6
b11111111 i
b0 M
0;
b11111111 :
b11111111 L
b11111111 r
b11111111 u
b10100101 0
b10100101 H
b1011010 /
b1011010 I
b11 @
b11 J
b11 d
b10 ?
b10 e
b1 >
b1 f
1D
b1011010 7
b1011010 h
b10011 4
b10011 N
b1011010 8
b1001101011010 G
b10100101 "
b10100101 1
b10100101 w
b1010101010 9
b1010101010 l
b100010 3
b100010 m
b100010 q
1%
#68000
0%
#69000
b10101010 6
b10101010 i
b10101010 M
0;
b10101010 :
b10101010 L
b10101010 r
b10101010 u
b0 0
b0 H
b10101010 /
b10101010 I
1E
b0 @
b0 J
b0 d
b1 >
b1 f
b0 ?
b0 e
0D
b10101010 7
b10101010 h
b10 4
b10 N
b10101010 8
b1010000000000 9
b1010000000000 l
b100011 3
b100011 m
b100011 q
b11111111 "
b11111111 1
b11111111 w
b1010101010 G
1%
#70000
0%
#71000
0A
b1010101 6
b1010101 i
b0 M
0;
b1010101 :
b1010101 L
b1010101 r
b1010101 u
b10101010 0
b10101010 H
b11111111 /
b11111111 I
b100 @
b100 J
b100 d
b1 ?
b1 e
b0 >
b0 f
1E
b0 7
b0 h
b10100 4
b10100 N
b0 8
b1010000000000 G
b10101010 !
b10101010 2
b10101010 t
b1111001100 9
b1111001100 l
b100100 3
b100100 m
b100100 q
1%
#72000
0%
#73000
0=
0F
1A
b11001100 6
b11001100 i
b11001100 /
b11001100 I
b11001100 M
0;
b11001100 :
b11001100 L
b11001100 r
b11001100 u
b0 0
b0 H
b1 >
b1 f
1D
b0 @
b0 J
b0 d
b0 ?
b0 e
0E
b11001100 7
b11001100 h
b11 4
b11 N
b11001100 8
b1011100000000 9
b1011100000000 l
b100101 3
b100101 m
b100101 q
b1010101 !
b1010101 2
b1010101 t
b1111001100 G
1%
#74000
0%
#75000
0A
b110011 6
b110011 i
b0 M
0;
b110011 :
b110011 L
b110011 r
b110011 u
b11001100 0
b11001100 H
b100 @
b100 J
b100 d
b10 ?
b10 e
b0 >
b0 f
1D
b0 7
b0 h
b10111 4
b10111 N
b0 8
b1011100000000 G
b11001100 "
b11001100 1
b11001100 w
b1011111111 9
b1011111111 l
b100110 3
b100110 m
b100110 q
1%
#76000
0%
#77000
0=
0F
1A
b11111111 6
b11111111 i
b0 0
b0 H
b11111111 M
0;
b11111111 :
b11111111 L
b11111111 r
b11111111 u
b1 >
b1 f
1E
b0 @
b0 J
b0 d
b0 ?
b0 e
0D
b11111111 7
b11111111 h
b11111111 /
b11111111 I
b10 4
b10 N
b11111111 8
b1111110000 9
b1111110000 l
b100111 3
b100111 m
b100111 q
b110011 "
b110011 1
b110011 w
b1011111111 G
1%
#78000
0%
#79000
b11110000 6
b11110000 i
b11110000 M
0;
b11110000 :
b11110000 L
b11110000 r
b11110000 u
b11110000 /
b11110000 I
1D
b1 >
b1 f
0E
b11110000 7
b11110000 h
b11 4
b11 N
b11110000 8
b1111110000 G
b11111111 !
b11111111 2
b11111111 t
b1010100000000 9
b1010100000000 l
b101000 3
b101000 m
b101000 q
1%
#80000
0%
#81000
0A
b1111 6
b1111 i
b0 M
0;
b1111 :
b1111 L
b1111 r
b1111 u
b11110000 0
b11110000 H
b100 @
b100 J
b100 d
b10 ?
b10 e
1E
b0 >
b0 f
0D
b0 7
b0 h
b10101 4
b10101 N
b0 8
b1000001111 9
b1000001111 l
b101001 3
b101001 m
b101001 q
b11110000 "
b11110000 1
b11110000 w
b1010100000000 G
1%
#82000
0%
#83000
0=
0F
0A
b1111 6
b1111 i
b1111 /
b1111 I
b1111 M
0;
b1111 :
b1111 L
b1111 r
b1111 u
b0 0
b0 H
b1 >
b1 f
b0 @
b0 J
b0 d
b0 ?
b0 e
1E
b1111 7
b1111 h
b10 4
b10 N
b1111 8
b1000001111 G
b1111 !
b1111 2
b1111 t
b1111111111 9
b1111111111 l
b101010 3
b101010 m
b101010 q
1%
#84000
0%
#85000
1A
b11111111 6
b11111111 i
b11111111 M
0;
b11111111 :
b11111111 L
b11111111 r
b11111111 u
b11111111 /
b11111111 I
1D
b1 >
b1 f
0E
b11111111 7
b11111111 h
b11 4
b11 N
b11111111 8
b1011000000000 9
b1011000000000 l
b101011 3
b101011 m
b101011 q
b1111111111 G
1%
#86000
0%
#87000
b11110000 6
b11110000 i
b0 M
0;
b11110000 :
b11110000 L
b11110000 r
b11110000 u
b1111 0
b1111 H
b100 @
b100 J
b100 d
b1 ?
b1 e
b0 >
b0 f
1D
b0 7
b0 h
b10110 4
b10110 N
b0 8
b1011000000000 G
b11111111 "
b11111111 1
b11111111 w
b1011001010 9
b1011001010 l
b101100 3
b101100 m
b101100 q
1%
#88000
0%
#89000
1A
0=
0F
b11001010 6
b11001010 i
b0 0
b0 H
b11001010 M
0;
b11001010 :
b11001010 L
b11001010 r
b11001010 u
b1 >
b1 f
1E
b0 @
b0 J
b0 d
b0 ?
b0 e
0D
b11001010 7
b11001010 h
b11001010 /
b11001010 I
b10 4
b10 N
b11001010 8
b1110101110 9
b1110101110 l
b101101 3
b101101 m
b101101 q
b11110000 "
b11110000 1
b11110000 w
b1011001010 G
1%
#90000
0%
#91000
b10101110 6
b10101110 i
b10101110 M
0;
b10101110 :
b10101110 L
b10101110 r
b10101110 u
b10101110 /
b10101110 I
1D
b1 >
b1 f
0E
b10101110 7
b10101110 h
b11 4
b11 N
b10101110 8
b1110101110 G
b11001010 !
b11001010 2
b11001010 t
b1100000000000 9
b1100000000000 l
b101110 3
b101110 m
b101110 q
1%
#92000
0%
#93000
0A
b1100100 6
b1100100 i
b0 M
0;
b1100100 :
b1100100 L
b1100100 r
b1100100 u
b11001010 0
b11001010 H
b101 @
b101 J
b101 d
b1 ?
b1 e
1E
b0 >
b0 f
0D
b0 7
b0 h
b11000 4
b11000 N
b0 8
b101111 3
b101111 m
b101111 q
b10101110 "
b10101110 1
b10101110 w
b1100000000000 G
1%
#94000
0%
#95000
1A
b11001010 6
b11001010 i
0;
b11001010 :
b11001010 L
b11001010 r
b11001010 u
b1100100 0
b1100100 H
b1100100 !
b1100100 2
b1100100 t
b1011110000 9
b1011110000 l
b110000 3
b110000 m
b110000 q
1%
#96000
0%
#97000
1A
0=
0F
b11110000 6
b11110000 i
b11110000 /
b11110000 I
b11110000 M
0;
b11110000 :
b11110000 L
b11110000 r
b11110000 u
b0 0
b0 H
b1 >
b1 f
b0 @
b0 J
b0 d
b0 ?
b0 e
1E
b11110000 7
b11110000 h
b10 4
b10 N
b11110000 8
b1110101010 9
b1110101010 l
b110001 3
b110001 m
b110001 q
b11001010 !
b11001010 2
b11001010 t
b1011110000 G
1%
#98000
0%
#99000
b10101010 6
b10101010 i
b10101010 M
0;
b10101010 :
b10101010 L
b10101010 r
b10101010 u
b10101010 /
b10101010 I
1D
b1 >
b1 f
0E
b10101010 7
b10101010 h
b11 4
b11 N
b10101010 8
b1110101010 G
b11110000 !
b11110000 2
b11110000 t
b1100100000000 9
b1100100000000 l
b110010 3
b110010 m
b110010 q
1%
#100000
0%
#101000
0A
b1011010 6
b1011010 i
b0 M
0;
b1011010 :
b1011010 L
b1011010 r
b1011010 u
b10101010 0
b10101010 H
b11110000 /
b11110000 I
b101 @
b101 J
b101 d
b10 ?
b10 e
b10 >
b10 f
1D
b0 7
b0 h
b11001 4
b11001 N
b0 8
b1000111100 9
b1000111100 l
b110011 3
b110011 m
b110011 q
b10101010 "
b10101010 1
b10101010 w
b1100100000000 G
1%
#102000
0%
#103000
b111100 /
b111100 I
0A
b111100 6
b111100 i
b111100 M
0;
b111100 :
b111100 L
b111100 r
b111100 u
b0 0
b0 H
1E
b0 @
b0 J
b0 d
b1 >
b1 f
b0 ?
b0 e
0D
b111100 7
b111100 h
b10 4
b10 N
b111100 8
b1000111100 G
b1011010 "
b1011010 1
b1011010 w
b1101011111111 9
b1101011111111 l
b110100 3
b110100 m
b110100 q
1%
#104000
0%
#105000
1A
b11000011 6
b11000011 i
b0 M
0;
b11000011 :
b11000011 L
b11000011 r
b11000011 u
b111100 0
b111100 H
b11111111 /
b11111111 I
b101 @
b101 J
b101 d
b1 ?
b1 e
b1 >
b1 f
1E
b11111111 7
b11111111 h
b11010 4
b11010 N
b11111111 8
b1110010010 9
b1110010010 l
b110101 3
b110101 m
b110101 q
b111100 !
b111100 2
b111100 t
b1101011111111 G
1%
#106000
0%
#107000
b10010010 6
b10010010 i
b10010010 /
b10010010 I
0F
b10010010 M
0;
b10010010 :
b10010010 L
b10010010 r
b10010010 u
1D
b0 @
b0 J
b0 d
b1 >
b1 f
b0 ?
b0 e
0E
b10010010 7
b10010010 h
b0 0
b0 H
b11 4
b11 N
b10010010 8
b1110010010 G
b11000011 !
b11000011 2
b11000011 t
b1101101100110 9
b1101101100110 l
b110110 3
b110110 m
b110110 q
1%
#108000
0%
#109000
1A
b11110100 6
b11110100 i
b0 M
0;
b11110100 :
b11110100 L
b11110100 r
b11110100 u
b10010010 0
b10010010 H
b1100110 /
b1100110 I
b101 @
b101 J
b101 d
b10 ?
b10 e
b1 >
b1 f
1D
b1100110 7
b1100110 h
b11011 4
b11011 N
b1100110 8
b1000000101 9
b1000000101 l
b110111 3
b110111 m
b110111 q
b10010010 "
b10010010 1
b10010010 w
b1101101100110 G
1%
#110000
0%
#111000
0A
b101 6
b101 i
b101 M
0;
b101 :
b101 L
b101 r
b101 u
b101 /
b101 I
b0 0
b0 H
1E
b0 @
b0 J
b0 d
b1 >
b1 f
b0 ?
b0 e
0D
b101 7
b101 h
b10 4
b10 N
b101 8
b1000000101 G
b11110100 "
b11110100 1
b11110100 w
b1110000000000 9
b1110000000000 l
b111000 3
b111000 m
b111000 q
1%
#112000
0%
#113000
b1010 6
b1010 i
b0 M
0;
b1010 :
b1010 L
b1010 r
b1010 u
b101 0
b101 H
b11110100 /
b11110100 I
b110 @
b110 J
b110 d
b1 ?
b1 e
b0 >
b0 f
1E
b0 7
b0 h
b11100 4
b11100 N
b0 8
b1100001100 9
b1100001100 l
b111001 3
b111001 m
b111001 q
b101 !
b101 2
b101 t
b1110000000000 G
1%
#114000
0%
#115000
0=
0F
0A
b1100 6
b1100 i
b1100 /
b1100 I
b1100 M
0;
b1100 :
b1100 L
b1100 r
b1100 u
b1 >
b1 f
1D
b0 @
b0 J
b0 d
b0 ?
b0 e
0E
b1100 7
b1100 h
b0 0
b0 H
b11 4
b11 N
b1100 8
b1100001100 G
b1010 !
b1010 2
b1010 t
b1111100000000 9
b1111100000000 l
b111010 3
b111010 m
b111010 q
1%
#116000
0%
#117000
b11000 6
b11000 i
b0 M
0;
b11000 :
b11000 L
b11000 r
b11000 u
b1100 0
b1100 H
b110 @
b110 J
b110 d
b10 ?
b10 e
b0 >
b0 f
1D
b0 7
b0 h
b11111 4
b11111 N
b0 8
b1001100011 9
b1001100011 l
b111011 3
b111011 m
b111011 q
b1100 "
b1100 1
b1100 w
b1111100000000 G
1%
#118000
0%
#119000
0A
b1100011 6
b1100011 i
0=
0F
b1100011 M
b0 0
b0 H
b1 >
b1 f
1E
b0 @
b0 J
b0 d
b0 ?
b0 e
0D
b1100011 7
b1100011 h
0;
b1100011 :
b1100011 L
b1100011 r
b1100011 u
b10 4
b10 N
b1100011 8
b1100011 /
b1100011 I
b1001100011 G
b11000 "
b11000 1
b11000 w
b1100010101 9
b1100010101 l
b111100 3
b111100 m
b111100 q
1%
#120000
0%
#121000
b10101 6
b10101 i
b10101 M
0;
b10101 :
b10101 L
b10101 r
b10101 u
b10101 /
b10101 I
1D
b1 >
b1 f
0E
b10101 7
b10101 h
b11 4
b11 N
b10101 8
b1110100000000 9
b1110100000000 l
b111101 3
b111101 m
b111101 q
b1100011 !
b1100011 2
b1100011 t
b1100010101 G
1%
#122000
0%
